[INFO ] 2020-01-03 15:01:59.241 View:197 - 
Spring: 
[INFO ] 2020-01-03 15:01:59.245 View:199 - 1 - BeanB, BeanC, BeanD from properties file 
[INFO ] 2020-01-03 15:01:59.245 View:199 - 2 - Imported configuration 
[INFO ] 2020-01-03 15:01:59.245 View:199 - 3 - Injecting BeanB 
[INFO ] 2020-01-03 15:01:59.253 View:199 - 4 - Injecting BeanС 
[INFO ] 2020-01-03 15:01:59.253 View:199 - 5 - Injecting BeanD 
[INFO ] 2020-01-03 15:01:59.254 View:199 - 6 - Ordered  creation of Beans 
[INFO ] 2020-01-03 15:01:59.254 View:199 - 7 - BeanE 
[INFO ] 2020-01-03 15:01:59.254 View:199 - 8 - BeanF 
[INFO ] 2020-01-03 15:01:59.254 View:199 - 9 - All beans 
[INFO ] 2020-01-03 15:01:59.255 View:199 - 10 - All Beans validation 
[INFO ] 2020-01-03 15:01:59.255 View:199 - 11 - Scan beans1 
[INFO ] 2020-01-03 15:01:59.255 View:199 - 12 - Scan beans2,beans3 
[INFO ] 2020-01-03 15:01:59.255 View:199 - 13 - Injecting with Autowired 
[INFO ] 2020-01-03 15:01:59.255 View:199 - 14 - Collection for beans 
[INFO ] 2020-01-03 15:01:59.256 View:199 - 15 - Scope 
[INFO ] 2020-01-03 15:01:59.256 View:199 - Q - Exit 
[INFO ] 2020-01-03 15:01:59.256 View:207 - Please, select menu point 
[INFO ] 2020-01-03 15:02:04.021 BeanB:25 - B 
[INFO ] 2020-01-03 15:02:04.023 BeanC:24 - C 
[INFO ] 2020-01-03 15:02:04.024 BeanD:21 - D 
[INFO ] 2020-01-03 15:02:04.044 View:82 - BeanB{name='Eagle', value=1} 
[INFO ] 2020-01-03 15:02:04.044 View:83 - BeanC{name='Sparrow', value=2} 
[INFO ] 2020-01-03 15:02:04.044 View:84 - BeanD{name='Titmouse', value=3} 
[INFO ] 2020-01-03 15:02:04.044 View:197 - 
Spring: 
[INFO ] 2020-01-03 15:02:04.045 View:199 - 1 - BeanB, BeanC, BeanD from properties file 
[INFO ] 2020-01-03 15:02:04.045 View:199 - 2 - Imported configuration 
[INFO ] 2020-01-03 15:02:04.045 View:199 - 3 - Injecting BeanB 
[INFO ] 2020-01-03 15:02:04.045 View:199 - 4 - Injecting BeanС 
[INFO ] 2020-01-03 15:02:04.045 View:199 - 5 - Injecting BeanD 
[INFO ] 2020-01-03 15:02:04.045 View:199 - 6 - Ordered  creation of Beans 
[INFO ] 2020-01-03 15:02:04.046 View:199 - 7 - BeanE 
[INFO ] 2020-01-03 15:02:04.046 View:199 - 8 - BeanF 
[INFO ] 2020-01-03 15:02:04.046 View:199 - 9 - All beans 
[INFO ] 2020-01-03 15:02:04.046 View:199 - 10 - All Beans validation 
[INFO ] 2020-01-03 15:02:04.046 View:199 - 11 - Scan beans1 
[INFO ] 2020-01-03 15:02:04.046 View:199 - 12 - Scan beans2,beans3 
[INFO ] 2020-01-03 15:02:04.046 View:199 - 13 - Injecting with Autowired 
[INFO ] 2020-01-03 15:02:04.047 View:199 - 14 - Collection for beans 
[INFO ] 2020-01-03 15:02:04.047 View:199 - 15 - Scope 
[INFO ] 2020-01-03 15:02:04.047 View:199 - Q - Exit 
[INFO ] 2020-01-03 15:02:04.047 View:207 - Please, select menu point 
[INFO ] 2020-01-03 15:02:07.697 BeanB:25 - B 
[INFO ] 2020-01-03 15:02:07.698 BeanC:24 - C 
[INFO ] 2020-01-03 15:02:07.700 BeanD:21 - D 
[INFO ] 2020-01-03 15:02:07.703 View:92 - BeanB{name='Eagle', value=1} 
[INFO ] 2020-01-03 15:02:07.703 View:93 - BeanC{name='Sparrow', value=2} 
[INFO ] 2020-01-03 15:02:07.703 View:94 - BeanD{name='Titmouse', value=3} 
[INFO ] 2020-01-03 15:02:07.703 View:197 - 
Spring: 
[INFO ] 2020-01-03 15:02:07.703 View:199 - 1 - BeanB, BeanC, BeanD from properties file 
[INFO ] 2020-01-03 15:02:07.703 View:199 - 2 - Imported configuration 
[INFO ] 2020-01-03 15:02:07.704 View:199 - 3 - Injecting BeanB 
[INFO ] 2020-01-03 15:02:07.704 View:199 - 4 - Injecting BeanС 
[INFO ] 2020-01-03 15:02:07.704 View:199 - 5 - Injecting BeanD 
[INFO ] 2020-01-03 15:02:07.704 View:199 - 6 - Ordered  creation of Beans 
[INFO ] 2020-01-03 15:02:07.704 View:199 - 7 - BeanE 
[INFO ] 2020-01-03 15:02:07.704 View:199 - 8 - BeanF 
[INFO ] 2020-01-03 15:02:07.704 View:199 - 9 - All beans 
[INFO ] 2020-01-03 15:02:07.704 View:199 - 10 - All Beans validation 
[INFO ] 2020-01-03 15:02:07.705 View:199 - 11 - Scan beans1 
[INFO ] 2020-01-03 15:02:07.705 View:199 - 12 - Scan beans2,beans3 
[INFO ] 2020-01-03 15:02:07.705 View:199 - 13 - Injecting with Autowired 
[INFO ] 2020-01-03 15:02:07.705 View:199 - 14 - Collection for beans 
[INFO ] 2020-01-03 15:02:07.705 View:199 - 15 - Scope 
[INFO ] 2020-01-03 15:02:07.705 View:199 - Q - Exit 
[INFO ] 2020-01-03 15:02:07.705 View:207 - Please, select menu point 
[INFO ] 2020-01-03 15:02:10.463 BeanB:25 - B 
[INFO ] 2020-01-03 15:02:10.471 BeanA:65 - BeanA - configured 
[INFO ] 2020-01-03 15:02:10.483 View:101 - BeanA{name='Eagle', value=1} 
[INFO ] 2020-01-03 15:02:10.483 View:197 - 
Spring: 
[INFO ] 2020-01-03 15:02:10.483 View:199 - 1 - BeanB, BeanC, BeanD from properties file 
[INFO ] 2020-01-03 15:02:10.483 View:199 - 2 - Imported configuration 
[INFO ] 2020-01-03 15:02:10.483 View:199 - 3 - Injecting BeanB 
[INFO ] 2020-01-03 15:02:10.484 View:199 - 4 - Injecting BeanС 
[INFO ] 2020-01-03 15:02:10.484 View:199 - 5 - Injecting BeanD 
[INFO ] 2020-01-03 15:02:10.484 View:199 - 6 - Ordered  creation of Beans 
[INFO ] 2020-01-03 15:02:10.484 View:199 - 7 - BeanE 
[INFO ] 2020-01-03 15:02:10.484 View:199 - 8 - BeanF 
[INFO ] 2020-01-03 15:02:10.484 View:199 - 9 - All beans 
[INFO ] 2020-01-03 15:02:10.484 View:199 - 10 - All Beans validation 
[INFO ] 2020-01-03 15:02:10.485 View:199 - 11 - Scan beans1 
[INFO ] 2020-01-03 15:02:10.485 View:199 - 12 - Scan beans2,beans3 
[INFO ] 2020-01-03 15:02:10.485 View:199 - 13 - Injecting with Autowired 
[INFO ] 2020-01-03 15:02:10.485 View:199 - 14 - Collection for beans 
[INFO ] 2020-01-03 15:02:10.485 View:199 - 15 - Scope 
[INFO ] 2020-01-03 15:02:10.485 View:199 - Q - Exit 
[INFO ] 2020-01-03 15:02:10.485 View:207 - Please, select menu point 
[INFO ] 2020-01-03 15:02:15.773 BeanC:24 - C 
[INFO ] 2020-01-03 15:02:15.775 BeanD:21 - D 
[INFO ] 2020-01-03 15:02:15.777 BeanA:65 - BeanA - configured 
[INFO ] 2020-01-03 15:02:15.779 View:107 - BeanA{name='Sparrow', value=2} 
[INFO ] 2020-01-03 15:02:15.780 View:197 - 
Spring: 
[INFO ] 2020-01-03 15:02:15.780 View:199 - 1 - BeanB, BeanC, BeanD from properties file 
[INFO ] 2020-01-03 15:02:15.780 View:199 - 2 - Imported configuration 
[INFO ] 2020-01-03 15:02:15.780 View:199 - 3 - Injecting BeanB 
[INFO ] 2020-01-03 15:02:15.780 View:199 - 4 - Injecting BeanС 
[INFO ] 2020-01-03 15:02:15.780 View:199 - 5 - Injecting BeanD 
[INFO ] 2020-01-03 15:02:15.780 View:199 - 6 - Ordered  creation of Beans 
[INFO ] 2020-01-03 15:02:15.780 View:199 - 7 - BeanE 
[INFO ] 2020-01-03 15:02:15.781 View:199 - 8 - BeanF 
[INFO ] 2020-01-03 15:02:15.781 View:199 - 9 - All beans 
[INFO ] 2020-01-03 15:02:15.781 View:199 - 10 - All Beans validation 
[INFO ] 2020-01-03 15:02:15.781 View:199 - 11 - Scan beans1 
[INFO ] 2020-01-03 15:02:15.781 View:199 - 12 - Scan beans2,beans3 
[INFO ] 2020-01-03 15:02:15.781 View:199 - 13 - Injecting with Autowired 
[INFO ] 2020-01-03 15:02:15.781 View:199 - 14 - Collection for beans 
[INFO ] 2020-01-03 15:02:15.781 View:199 - 15 - Scope 
[INFO ] 2020-01-03 15:02:15.781 View:199 - Q - Exit 
[INFO ] 2020-01-03 15:02:15.781 View:207 - Please, select menu point 
[INFO ] 2020-01-03 15:02:20.962 BeanC:24 - C 
[INFO ] 2020-01-03 15:02:20.963 BeanD:21 - D 
[INFO ] 2020-01-03 15:02:20.966 BeanA:65 - BeanA - configured 
[INFO ] 2020-01-03 15:02:20.969 View:113 - BeanA{name='Titmouse', value=3} 
[INFO ] 2020-01-03 15:02:20.969 View:197 - 
Spring: 
[INFO ] 2020-01-03 15:02:20.969 View:199 - 1 - BeanB, BeanC, BeanD from properties file 
[INFO ] 2020-01-03 15:02:20.969 View:199 - 2 - Imported configuration 
[INFO ] 2020-01-03 15:02:20.969 View:199 - 3 - Injecting BeanB 
[INFO ] 2020-01-03 15:02:20.969 View:199 - 4 - Injecting BeanС 
[INFO ] 2020-01-03 15:02:20.969 View:199 - 5 - Injecting BeanD 
[INFO ] 2020-01-03 15:02:20.969 View:199 - 6 - Ordered  creation of Beans 
[INFO ] 2020-01-03 15:02:20.969 View:199 - 7 - BeanE 
[INFO ] 2020-01-03 15:02:20.969 View:199 - 8 - BeanF 
[INFO ] 2020-01-03 15:02:20.970 View:199 - 9 - All beans 
[INFO ] 2020-01-03 15:02:20.970 View:199 - 10 - All Beans validation 
[INFO ] 2020-01-03 15:02:20.970 View:199 - 11 - Scan beans1 
[INFO ] 2020-01-03 15:02:20.970 View:199 - 12 - Scan beans2,beans3 
[INFO ] 2020-01-03 15:02:20.970 View:199 - 13 - Injecting with Autowired 
[INFO ] 2020-01-03 15:02:20.970 View:199 - 14 - Collection for beans 
[INFO ] 2020-01-03 15:02:20.970 View:199 - 15 - Scope 
[INFO ] 2020-01-03 15:02:20.970 View:199 - Q - Exit 
[INFO ] 2020-01-03 15:02:20.970 View:207 - Please, select menu point 
[INFO ] 2020-01-03 15:02:25.003 BeanD:21 - D 
[INFO ] 2020-01-03 15:02:25.004 BeanB:25 - B 
[INFO ] 2020-01-03 15:02:25.005 BeanC:24 - C 
[INFO ] 2020-01-03 15:02:25.008 View:122 - BeanB{name='Eagle', value=1} 
[INFO ] 2020-01-03 15:02:25.008 View:123 - BeanC{name='Sparrow', value=2} 
[INFO ] 2020-01-03 15:02:25.008 View:124 - BeanD{name='Titmouse', value=3} 
[INFO ] 2020-01-03 15:02:25.008 View:197 - 
Spring: 
[INFO ] 2020-01-03 15:02:25.009 View:199 - 1 - BeanB, BeanC, BeanD from properties file 
[INFO ] 2020-01-03 15:02:25.009 View:199 - 2 - Imported configuration 
[INFO ] 2020-01-03 15:02:25.009 View:199 - 3 - Injecting BeanB 
[INFO ] 2020-01-03 15:02:25.009 View:199 - 4 - Injecting BeanС 
[INFO ] 2020-01-03 15:02:25.009 View:199 - 5 - Injecting BeanD 
[INFO ] 2020-01-03 15:02:25.009 View:199 - 6 - Ordered  creation of Beans 
[INFO ] 2020-01-03 15:02:25.009 View:199 - 7 - BeanE 
[INFO ] 2020-01-03 15:02:25.009 View:199 - 8 - BeanF 
[INFO ] 2020-01-03 15:02:25.009 View:199 - 9 - All beans 
[INFO ] 2020-01-03 15:02:25.009 View:199 - 10 - All Beans validation 
[INFO ] 2020-01-03 15:02:25.009 View:199 - 11 - Scan beans1 
[INFO ] 2020-01-03 15:02:25.010 View:199 - 12 - Scan beans2,beans3 
[INFO ] 2020-01-03 15:02:25.010 View:199 - 13 - Injecting with Autowired 
[INFO ] 2020-01-03 15:02:25.010 View:199 - 14 - Collection for beans 
[INFO ] 2020-01-03 15:02:25.010 View:199 - 15 - Scope 
[INFO ] 2020-01-03 15:02:25.010 View:199 - Q - Exit 
[INFO ] 2020-01-03 15:02:25.010 View:207 - Please, select menu point 
[INFO ] 2020-01-03 15:02:48.202 PostProcessorRegistrationDelegate$BeanPostProcessorChecker:330 - Bean 'beanConfigE' of type [com.epam.model.config.BeanConfigE$$EnhancerBySpringCGLIB$$33a8082f] is not eligible for getting processed by all BeanPostProcessors (for example: not eligible for auto-proxying) 
[INFO ] 2020-01-03 15:02:48.216 BeanB:25 - B 
[INFO ] 2020-01-03 15:02:48.217 BeanB:49 - BeanB{name='Eagle', value=1} Validated 
[INFO ] 2020-01-03 15:02:48.225 BeanD:21 - D 
[INFO ] 2020-01-03 15:02:48.226 BeanD:44 - BeanD{name='Titmouse', value=3} Validated 
[INFO ] 2020-01-03 15:02:48.227 BeanA:65 - BeanA - configured 
[INFO ] 2020-01-03 15:02:48.227 BeanA:54 - BeanA{name='Titmouse', value=3} Validated 
[INFO ] 2020-01-03 15:02:48.235 BeanC:24 - C 
[INFO ] 2020-01-03 15:02:48.236 BeanC:46 - BeanC{name='Sparrow', value=2} Validated 
[INFO ] 2020-01-03 15:02:48.242 BeanE:58 - C-Initialized 
[INFO ] 2020-01-03 15:02:48.242 BeanE:53 - BeanE{name='Sparrow', value=2} Validated 
[INFO ] 2020-01-03 15:02:48.245 View:130 - BeanE{name='Sparrow', value=2} 
[INFO ] 2020-01-03 15:02:48.245 View:197 - 
Spring: 
[INFO ] 2020-01-03 15:02:48.245 View:199 - 1 - BeanB, BeanC, BeanD from properties file 
[INFO ] 2020-01-03 15:02:48.246 View:199 - 2 - Imported configuration 
[INFO ] 2020-01-03 15:02:48.246 View:199 - 3 - Injecting BeanB 
[INFO ] 2020-01-03 15:02:48.246 View:199 - 4 - Injecting BeanС 
[INFO ] 2020-01-03 15:02:48.246 View:199 - 5 - Injecting BeanD 
[INFO ] 2020-01-03 15:02:48.246 View:199 - 6 - Ordered  creation of Beans 
[INFO ] 2020-01-03 15:02:48.246 View:199 - 7 - BeanE 
[INFO ] 2020-01-03 15:02:48.246 View:199 - 8 - BeanF 
[INFO ] 2020-01-03 15:02:48.246 View:199 - 9 - All beans 
[INFO ] 2020-01-03 15:02:48.246 View:199 - 10 - All Beans validation 
[INFO ] 2020-01-03 15:02:48.246 View:199 - 11 - Scan beans1 
[INFO ] 2020-01-03 15:02:48.246 View:199 - 12 - Scan beans2,beans3 
[INFO ] 2020-01-03 15:02:48.247 View:199 - 13 - Injecting with Autowired 
[INFO ] 2020-01-03 15:02:48.247 View:199 - 14 - Collection for beans 
[INFO ] 2020-01-03 15:02:48.247 View:199 - 15 - Scope 
[INFO ] 2020-01-03 15:02:48.247 View:199 - Q - Exit 
[INFO ] 2020-01-03 15:02:48.247 View:207 - Please, select menu point 
[INFO ] 2020-01-03 15:02:53.345 PostProcessorRegistrationDelegate$BeanPostProcessorChecker:330 - Bean 'beanConfigF' of type [com.epam.model.config.BeanConfigF$$EnhancerBySpringCGLIB$$6c0aab50] is not eligible for getting processed by all BeanPostProcessors (for example: not eligible for auto-proxying) 
[INFO ] 2020-01-03 15:02:53.352 BeanF:37 - BeanF{name='Hawk', value=4} Validated 
[INFO ] 2020-01-03 15:02:53.352 View:136 - BeanF{name='Hawk', value=4} 
[INFO ] 2020-01-03 15:02:53.352 View:197 - 
Spring: 
[INFO ] 2020-01-03 15:02:53.352 View:199 - 1 - BeanB, BeanC, BeanD from properties file 
[INFO ] 2020-01-03 15:02:53.353 View:199 - 2 - Imported configuration 
[INFO ] 2020-01-03 15:02:53.353 View:199 - 3 - Injecting BeanB 
[INFO ] 2020-01-03 15:02:53.353 View:199 - 4 - Injecting BeanС 
[INFO ] 2020-01-03 15:02:53.353 View:199 - 5 - Injecting BeanD 
[INFO ] 2020-01-03 15:02:53.353 View:199 - 6 - Ordered  creation of Beans 
[INFO ] 2020-01-03 15:02:53.353 View:199 - 7 - BeanE 
[INFO ] 2020-01-03 15:02:53.353 View:199 - 8 - BeanF 
[INFO ] 2020-01-03 15:02:53.353 View:199 - 9 - All beans 
[INFO ] 2020-01-03 15:02:53.353 View:199 - 10 - All Beans validation 
[INFO ] 2020-01-03 15:02:53.353 View:199 - 11 - Scan beans1 
[INFO ] 2020-01-03 15:02:53.353 View:199 - 12 - Scan beans2,beans3 
[INFO ] 2020-01-03 15:02:53.354 View:199 - 13 - Injecting with Autowired 
[INFO ] 2020-01-03 15:02:53.354 View:199 - 14 - Collection for beans 
[INFO ] 2020-01-03 15:02:53.354 View:199 - 15 - Scope 
[INFO ] 2020-01-03 15:02:53.354 View:199 - Q - Exit 
[INFO ] 2020-01-03 15:02:53.354 View:207 - Please, select menu point 
[INFO ] 2020-01-03 15:03:06.650 PostProcessorRegistrationDelegate$BeanPostProcessorChecker:330 - Bean 'beanConfigF' of type [com.epam.model.config.BeanConfigF$$EnhancerBySpringCGLIB$$6c0aab50] is not eligible for getting processed by all BeanPostProcessors (for example: not eligible for auto-proxying) 
[INFO ] 2020-01-03 15:03:06.674 BeanB:25 - B 
[INFO ] 2020-01-03 15:03:06.675 BeanB:49 - BeanB{name='Eagle', value=1} Validated 
[INFO ] 2020-01-03 15:03:06.675 BeanC:24 - C 
[INFO ] 2020-01-03 15:03:06.675 BeanC:46 - BeanC{name='Sparrow', value=2} Validated 
[INFO ] 2020-01-03 15:03:06.676 BeanD:21 - D 
[INFO ] 2020-01-03 15:03:06.676 BeanD:44 - BeanD{name='Titmouse', value=3} Validated 
[INFO ] 2020-01-03 15:03:06.678 BeanA:65 - BeanA - configured 
[INFO ] 2020-01-03 15:03:06.678 BeanA:54 - BeanA{name='Sparrow', value=2} Validated 
[INFO ] 2020-01-03 15:03:06.688 BeanF:37 - BeanF{name='Hawk', value=4} Validated 
[INFO ] 2020-01-03 15:03:06.688 View:147 - BeanA{name='Sparrow', value=2} 
[INFO ] 2020-01-03 15:03:06.688 View:148 - BeanB{name='Eagle', value=1} 
[INFO ] 2020-01-03 15:03:06.688 View:149 - BeanC{name='Sparrow', value=2} 
[INFO ] 2020-01-03 15:03:06.689 View:150 - BeanD{name='Titmouse', value=3} 
[INFO ] 2020-01-03 15:03:06.689 View:151 - BeanF{name='Hawk', value=4} 
[INFO ] 2020-01-03 15:03:06.689 View:197 - 
Spring: 
[INFO ] 2020-01-03 15:03:06.689 View:199 - 1 - BeanB, BeanC, BeanD from properties file 
[INFO ] 2020-01-03 15:03:06.689 View:199 - 2 - Imported configuration 
[INFO ] 2020-01-03 15:03:06.689 View:199 - 3 - Injecting BeanB 
[INFO ] 2020-01-03 15:03:06.689 View:199 - 4 - Injecting BeanС 
[INFO ] 2020-01-03 15:03:06.689 View:199 - 5 - Injecting BeanD 
[INFO ] 2020-01-03 15:03:06.689 View:199 - 6 - Ordered  creation of Beans 
[INFO ] 2020-01-03 15:03:06.689 View:199 - 7 - BeanE 
[INFO ] 2020-01-03 15:03:06.689 View:199 - 8 - BeanF 
[INFO ] 2020-01-03 15:03:06.689 View:199 - 9 - All beans 
[INFO ] 2020-01-03 15:03:06.690 View:199 - 10 - All Beans validation 
[INFO ] 2020-01-03 15:03:06.690 View:199 - 11 - Scan beans1 
[INFO ] 2020-01-03 15:03:06.690 View:199 - 12 - Scan beans2,beans3 
[INFO ] 2020-01-03 15:03:06.690 View:199 - 13 - Injecting with Autowired 
[INFO ] 2020-01-03 15:03:06.690 View:199 - 14 - Collection for beans 
[INFO ] 2020-01-03 15:03:06.690 View:199 - 15 - Scope 
[INFO ] 2020-01-03 15:03:06.690 View:199 - Q - Exit 
[INFO ] 2020-01-03 15:03:06.690 View:207 - Please, select menu point 
[INFO ] 2020-01-03 15:03:12.228 PostProcessorRegistrationDelegate$BeanPostProcessorChecker:330 - Bean 'beanConfigF' of type [com.epam.model.config.BeanConfigF$$EnhancerBySpringCGLIB$$6c0aab50] is not eligible for getting processed by all BeanPostProcessors (for example: not eligible for auto-proxying) 
[INFO ] 2020-01-03 15:03:12.250 BeanB:25 - B 
[INFO ] 2020-01-03 15:03:12.250 BeanB:49 - BeanB{name='Eagle', value=1} Validated 
[INFO ] 2020-01-03 15:03:12.251 BeanC:24 - C 
[INFO ] 2020-01-03 15:03:12.251 BeanC:46 - BeanC{name='Sparrow', value=2} Validated 
[INFO ] 2020-01-03 15:03:12.252 BeanD:21 - D 
[INFO ] 2020-01-03 15:03:12.252 BeanD:44 - BeanD{name='Titmouse', value=3} Validated 
[INFO ] 2020-01-03 15:03:12.254 BeanA:65 - BeanA - configured 
[INFO ] 2020-01-03 15:03:12.254 BeanA:54 - BeanA{name='Sparrow', value=2} Validated 
[INFO ] 2020-01-03 15:03:12.263 View:197 - 
Spring: 
[INFO ] 2020-01-03 15:03:12.263 View:199 - 1 - BeanB, BeanC, BeanD from properties file 
[INFO ] 2020-01-03 15:03:12.263 View:199 - 2 - Imported configuration 
[INFO ] 2020-01-03 15:03:12.264 View:199 - 3 - Injecting BeanB 
[INFO ] 2020-01-03 15:03:12.264 View:199 - 4 - Injecting BeanС 
[INFO ] 2020-01-03 15:03:12.264 View:199 - 5 - Injecting BeanD 
[INFO ] 2020-01-03 15:03:12.264 View:199 - 6 - Ordered  creation of Beans 
[INFO ] 2020-01-03 15:03:12.264 View:199 - 7 - BeanE 
[INFO ] 2020-01-03 15:03:12.264 View:199 - 8 - BeanF 
[INFO ] 2020-01-03 15:03:12.264 View:199 - 9 - All beans 
[INFO ] 2020-01-03 15:03:12.264 View:199 - 10 - All Beans validation 
[INFO ] 2020-01-03 15:03:12.264 View:199 - 11 - Scan beans1 
[INFO ] 2020-01-03 15:03:12.264 View:199 - 12 - Scan beans2,beans3 
[INFO ] 2020-01-03 15:03:12.264 View:199 - 13 - Injecting with Autowired 
[INFO ] 2020-01-03 15:03:12.264 View:199 - 14 - Collection for beans 
[INFO ] 2020-01-03 15:03:12.265 View:199 - 15 - Scope 
[INFO ] 2020-01-03 15:03:12.265 View:199 - Q - Exit 
[INFO ] 2020-01-03 15:03:12.265 View:207 - Please, select menu point 
[INFO ] 2020-01-03 15:03:18.179 View:161 - class org.springframework.context.annotation.ConfigurationClassPostProcessor 
[INFO ] 2020-01-03 15:03:18.179 View:161 - class org.springframework.beans.factory.annotation.AutowiredAnnotationBeanPostProcessor 
[INFO ] 2020-01-03 15:03:18.179 View:161 - class org.springframework.context.annotation.CommonAnnotationBeanPostProcessor 
[INFO ] 2020-01-03 15:03:18.179 View:161 - class org.springframework.context.event.EventListenerMethodProcessor 
[INFO ] 2020-01-03 15:03:18.179 View:161 - class org.springframework.context.event.DefaultEventListenerFactory 
[INFO ] 2020-01-03 15:03:18.180 View:161 - class com.epam.model.ConfigurationFirst$$EnhancerBySpringCGLIB$$d6e5c62 
[INFO ] 2020-01-03 15:03:18.180 View:161 - class com.epam.model.beans1.BeanA 
[INFO ] 2020-01-03 15:03:18.180 View:161 - class com.epam.model.beans1.BeanB 
[INFO ] 2020-01-03 15:03:18.180 View:161 - class com.epam.model.beans1.BeanC 
[INFO ] 2020-01-03 15:03:18.180 View:197 - 
Spring: 
[INFO ] 2020-01-03 15:03:18.180 View:199 - 1 - BeanB, BeanC, BeanD from properties file 
[INFO ] 2020-01-03 15:03:18.180 View:199 - 2 - Imported configuration 
[INFO ] 2020-01-03 15:03:18.180 View:199 - 3 - Injecting BeanB 
[INFO ] 2020-01-03 15:03:18.180 View:199 - 4 - Injecting BeanС 
[INFO ] 2020-01-03 15:03:18.181 View:199 - 5 - Injecting BeanD 
[INFO ] 2020-01-03 15:03:18.181 View:199 - 6 - Ordered  creation of Beans 
[INFO ] 2020-01-03 15:03:18.181 View:199 - 7 - BeanE 
[INFO ] 2020-01-03 15:03:18.181 View:199 - 8 - BeanF 
[INFO ] 2020-01-03 15:03:18.181 View:199 - 9 - All beans 
[INFO ] 2020-01-03 15:03:18.181 View:199 - 10 - All Beans validation 
[INFO ] 2020-01-03 15:03:18.181 View:199 - 11 - Scan beans1 
[INFO ] 2020-01-03 15:03:18.181 View:199 - 12 - Scan beans2,beans3 
[INFO ] 2020-01-03 15:03:18.181 View:199 - 13 - Injecting with Autowired 
[INFO ] 2020-01-03 15:03:18.181 View:199 - 14 - Collection for beans 
[INFO ] 2020-01-03 15:03:18.181 View:199 - 15 - Scope 
[INFO ] 2020-01-03 15:03:18.182 View:199 - Q - Exit 
[INFO ] 2020-01-03 15:03:18.182 View:207 - Please, select menu point 
[INFO ] 2020-01-03 15:03:22.812 View:168 - class org.springframework.context.annotation.ConfigurationClassPostProcessor 
[INFO ] 2020-01-03 15:03:22.812 View:168 - class org.springframework.beans.factory.annotation.AutowiredAnnotationBeanPostProcessor 
[INFO ] 2020-01-03 15:03:22.812 View:168 - class org.springframework.context.annotation.CommonAnnotationBeanPostProcessor 
[INFO ] 2020-01-03 15:03:22.812 View:168 - class org.springframework.context.event.EventListenerMethodProcessor 
[INFO ] 2020-01-03 15:03:22.812 View:168 - class org.springframework.context.event.DefaultEventListenerFactory 
[INFO ] 2020-01-03 15:03:22.813 View:168 - class com.epam.model.ConfigurationSecond$$EnhancerBySpringCGLIB$$e9a0194 
[INFO ] 2020-01-03 15:03:22.813 View:168 - class com.epam.model.beans3.BeanD 
[INFO ] 2020-01-03 15:03:22.813 View:168 - class com.epam.model.beans3.BeanF 
[INFO ] 2020-01-03 15:03:22.813 View:197 - 
Spring: 
[INFO ] 2020-01-03 15:03:22.813 View:199 - 1 - BeanB, BeanC, BeanD from properties file 
[INFO ] 2020-01-03 15:03:22.813 View:199 - 2 - Imported configuration 
[INFO ] 2020-01-03 15:03:22.813 View:199 - 3 - Injecting BeanB 
[INFO ] 2020-01-03 15:03:22.813 View:199 - 4 - Injecting BeanС 
[INFO ] 2020-01-03 15:03:22.813 View:199 - 5 - Injecting BeanD 
[INFO ] 2020-01-03 15:03:22.814 View:199 - 6 - Ordered  creation of Beans 
[INFO ] 2020-01-03 15:03:22.814 View:199 - 7 - BeanE 
[INFO ] 2020-01-03 15:03:22.814 View:199 - 8 - BeanF 
[INFO ] 2020-01-03 15:03:22.814 View:199 - 9 - All beans 
[INFO ] 2020-01-03 15:03:22.814 View:199 - 10 - All Beans validation 
[INFO ] 2020-01-03 15:03:22.814 View:199 - 11 - Scan beans1 
[INFO ] 2020-01-03 15:03:22.814 View:199 - 12 - Scan beans2,beans3 
[INFO ] 2020-01-03 15:03:22.814 View:199 - 13 - Injecting with Autowired 
[INFO ] 2020-01-03 15:03:22.814 View:199 - 14 - Collection for beans 
[INFO ] 2020-01-03 15:03:22.814 View:199 - 15 - Scope 
[INFO ] 2020-01-03 15:03:22.814 View:199 - Q - Exit 
[INFO ] 2020-01-03 15:03:22.814 View:207 - Please, select menu point 
[INFO ] 2020-01-03 15:03:26.310 View:174 - InjectingWithAutowired{otherBeanA=OtherBeanA{} 1280641161, otherBeanB=OtherBeanB{} 489411441, otherBeanC=OtherBeanC{} 1141113940} 
[INFO ] 2020-01-03 15:03:26.310 View:197 - 
Spring: 
[INFO ] 2020-01-03 15:03:26.310 View:199 - 1 - BeanB, BeanC, BeanD from properties file 
[INFO ] 2020-01-03 15:03:26.310 View:199 - 2 - Imported configuration 
[INFO ] 2020-01-03 15:03:26.310 View:199 - 3 - Injecting BeanB 
[INFO ] 2020-01-03 15:03:26.311 View:199 - 4 - Injecting BeanС 
[INFO ] 2020-01-03 15:03:26.311 View:199 - 5 - Injecting BeanD 
[INFO ] 2020-01-03 15:03:26.311 View:199 - 6 - Ordered  creation of Beans 
[INFO ] 2020-01-03 15:03:26.311 View:199 - 7 - BeanE 
[INFO ] 2020-01-03 15:03:26.311 View:199 - 8 - BeanF 
[INFO ] 2020-01-03 15:03:26.311 View:199 - 9 - All beans 
[INFO ] 2020-01-03 15:03:26.311 View:199 - 10 - All Beans validation 
[INFO ] 2020-01-03 15:03:26.311 View:199 - 11 - Scan beans1 
[INFO ] 2020-01-03 15:03:26.311 View:199 - 12 - Scan beans2,beans3 
[INFO ] 2020-01-03 15:03:26.311 View:199 - 13 - Injecting with Autowired 
[INFO ] 2020-01-03 15:03:26.311 View:199 - 14 - Collection for beans 
[INFO ] 2020-01-03 15:03:26.311 View:199 - 15 - Scope 
[INFO ] 2020-01-03 15:03:26.311 View:199 - Q - Exit 
[INFO ] 2020-01-03 15:03:26.312 View:207 - Please, select menu point 
[INFO ] 2020-01-03 15:03:32.366 FruitsStore:24 - green class com.epam.model.collections.Apple 
[INFO ] 2020-01-03 15:03:32.366 FruitsStore:24 - red class com.epam.model.collections.Cherry 
[INFO ] 2020-01-03 15:03:32.366 FruitsStore:24 - yellow class com.epam.model.collections.Lemon 
[INFO ] 2020-01-03 15:03:32.366 FruitsStore:24 - yellow class com.epam.model.collections.Orange 
[INFO ] 2020-01-03 15:03:32.366 View:197 - 
Spring: 
[INFO ] 2020-01-03 15:03:32.366 View:199 - 1 - BeanB, BeanC, BeanD from properties file 
[INFO ] 2020-01-03 15:03:32.366 View:199 - 2 - Imported configuration 
[INFO ] 2020-01-03 15:03:32.366 View:199 - 3 - Injecting BeanB 
[INFO ] 2020-01-03 15:03:32.367 View:199 - 4 - Injecting BeanС 
[INFO ] 2020-01-03 15:03:32.367 View:199 - 5 - Injecting BeanD 
[INFO ] 2020-01-03 15:03:32.367 View:199 - 6 - Ordered  creation of Beans 
[INFO ] 2020-01-03 15:03:32.367 View:199 - 7 - BeanE 
[INFO ] 2020-01-03 15:03:32.367 View:199 - 8 - BeanF 
[INFO ] 2020-01-03 15:03:32.367 View:199 - 9 - All beans 
[INFO ] 2020-01-03 15:03:32.367 View:199 - 10 - All Beans validation 
[INFO ] 2020-01-03 15:03:32.367 View:199 - 11 - Scan beans1 
[INFO ] 2020-01-03 15:03:32.367 View:199 - 12 - Scan beans2,beans3 
[INFO ] 2020-01-03 15:03:32.367 View:199 - 13 - Injecting with Autowired 
[INFO ] 2020-01-03 15:03:32.367 View:199 - 14 - Collection for beans 
[INFO ] 2020-01-03 15:03:32.367 View:199 - 15 - Scope 
[INFO ] 2020-01-03 15:03:32.367 View:199 - Q - Exit 
[INFO ] 2020-01-03 15:03:32.368 View:207 - Please, select menu point 
[INFO ] 2020-01-03 15:03:36.339 View:184 - OtherBeanA{} 777341499 
[INFO ] 2020-01-03 15:03:36.339 View:185 - OtherBeanA{} 777341499 
[INFO ] 2020-01-03 15:03:36.340 View:186 - OtherBeanB{} 1420196421 
[INFO ] 2020-01-03 15:03:36.340 View:187 - OtherBeanB{} 2101527076 
[INFO ] 2020-01-03 15:03:36.340 View:197 - 
Spring: 
[INFO ] 2020-01-03 15:03:36.340 View:199 - 1 - BeanB, BeanC, BeanD from properties file 
[INFO ] 2020-01-03 15:03:36.340 View:199 - 2 - Imported configuration 
[INFO ] 2020-01-03 15:03:36.340 View:199 - 3 - Injecting BeanB 
[INFO ] 2020-01-03 15:03:36.340 View:199 - 4 - Injecting BeanС 
[INFO ] 2020-01-03 15:03:36.341 View:199 - 5 - Injecting BeanD 
[INFO ] 2020-01-03 15:03:36.341 View:199 - 6 - Ordered  creation of Beans 
[INFO ] 2020-01-03 15:03:36.341 View:199 - 7 - BeanE 
[INFO ] 2020-01-03 15:03:36.341 View:199 - 8 - BeanF 
[INFO ] 2020-01-03 15:03:36.341 View:199 - 9 - All beans 
[INFO ] 2020-01-03 15:03:36.341 View:199 - 10 - All Beans validation 
[INFO ] 2020-01-03 15:03:36.341 View:199 - 11 - Scan beans1 
[INFO ] 2020-01-03 15:03:36.341 View:199 - 12 - Scan beans2,beans3 
[INFO ] 2020-01-03 15:03:36.341 View:199 - 13 - Injecting with Autowired 
[INFO ] 2020-01-03 15:03:36.341 View:199 - 14 - Collection for beans 
[INFO ] 2020-01-03 15:03:36.341 View:199 - 15 - Scope 
[INFO ] 2020-01-03 15:03:36.341 View:199 - Q - Exit 
[INFO ] 2020-01-03 15:03:36.341 View:207 - Please, select menu point 
